{
    "projects_col_1": [
        {
            "image": "tiempo.png",
            "link": "https://gitlab.com/categulario/tiempo-rs",
            "repo_url": null,
            "title": "⏳ Tiempo",
            "description": "Tiempo es una herramienta de línea de comandos para registrar tiempos. Te permite saber cuánto tiempo pasaste en alguna tarea o proyecto y tiene algunas herramientas para consultar los registros.",
            "tags": ["rust", "cli"]
        },

        {
            "image": "mapmatching.png",
            "link": "https://github.com/categulario/map_matching",
            "repo_url": null,
            "title": "🚙 Map matching",
            "description": "Esta es la implementación en python (y posteriormente en rust) de un algoritmo para encontrar las calles por las que debió pasar un vehículo para generar cierta traza gps.",
            "tags": ["math", "python", "rust"]
        },

        {
            "image": null,
            "link": "https://extensions.gnome.org/extension/1466/full-battery-indicator/",
            "title": "🔋 full-battery-indicator",
            "repo_url": "https://github.com/categulario/full-battery-gnome-shell-extension/",
            "description": "Una extensión del escritorio gnome que te avisa cuando la batería de tu portátil está llena. Te ayuda a cuidar la vida útil de tu batería al evitar que la dejes conectada largos periodos de tiempo.",
            "tags": ["javascript", "gnome"]
        },

        {
            "image": null,
            "link": "https://gitlab.com/categulario/karelapan",
            "title": "↗️ Karelapan",
            "repo_url": "https://gitlab.com/categulario/karelapan",
            "description": "Esta es una plataforma de evaluación de problemas de karel. Hay un listado de problemas, subes tu código, se evalúa y tienes un puntaje. Es de mis proyectos más viejos y aprendí muchísimo creándolo. Actualmente fuera de línea.",
            "tags": ["django", "postgresql", "bootstrap"]
        },

        {
            "image": "csvsc.png",
            "link": "https://docs.rs/csvsc/latest/csvsc/index.html",
            "title": "CSVSC",
            "repo_url": "https://gitlab.com/categulario/csvsc",
            "description": "Una biblioteca para crear procesadores de archivos CSV. Define las transformaciones y cambia la forma, filtra o transforma tus archivos.",
            "tags": ["biblioteca", "rust"]
        }
    ],

    "projects_col_2": [
        {
            "image": "pizarra.png",
            "link": "https://pizarra.categulario.xyz",
            "repo_url": "https://gitlab.com/categulario/pizarra-gtk",
            "title": "🖌️ Pizarra",
            "description": "Esta es una aplicación de escritorio (con una versión web incompleta que existe solo por experimentación) que utilizo para hacer dibujos a mano alzada con mi tableta wacom. Está diseñada para ser mínima en su interfaz pero integra algunas figuras y características de dibujo básicas.",
            "tags": ["rust", "gtk", "webassembly"]
        },

        {
            "image": "eqxbot.png",
            "link": "https://t.me/eqxbot",
            "repo_url": "https://gitlab.com/categulario/eqxbot",
            "title": "🤓 EqxBot",
            "description": "Un pequeño bot de telegram que renderiza en una imagen png el texto de una fórmula matemática que le mandes en formato LaTex.",
            "tags": ["rust", "bot", "actix-web"]
        },

        {
            "image": "coralillo.png",
            "link": "https://categulario.gitlab.io/coralillo",
            "repo_url": "https://gitlab.com/categulario/coralillo",
            "title": "🐍 Coralillo",
            "description": "Un ORM para redis en python con soporte de relaciones entre objetos y consultas.",
            "tags": ["redis", "python"]
        },

        {
            "link": "https://gitlab.com/categulario/vbump",
            "title": "Vbump",
            "description": "Una herramienta de línea de comandos que te asiste en subir la versión de tus paquetes, con soporte para rust y javascript",
            "tags": ["rust", "cli", "javascript"]
        }
    ],

    "projects_col_3": [
        {
            "image": "mntnwttrbot.png",
            "link": "https://t.me/mntnwttrbot",
            "title": "🗻 Mountain weather bot",
            "repo_url": "https://gitlab.com/categulario/mntnwttrbot",
            "description": "Bot de telegram que te reporta el clima de tus montañas favoritas de todo el mundo. Escríbele el nombre de una montaña y te devolverá una imagen con el pronóstico, además de ofrecerte diferentes alturas",
            "tags": ["rust", "javascript", "webscrapping", "telegram"]
        },

        {
            "image": "scheman.png",
            "link": "https://scheman.categulario.xyz",
            "title": "🗓 Schean",
            "repo_url": "https://gitlab.com/categulario/scheman",
            "description": "Una aplicación web para gestionar los horarios de una escuela. La construí en mis tiempos de la universidad para tener una forma sencilla de encontrar un salón disponible para realizar actividades, pero además te permite encontrar los horarios de uno o varios profesores o de un salón o espacio.",
            "tags": ["python", "flask"]
        },

        {
            "image": "karel.png",
            "link": "http://karel.categulario.xyz",
            "title": "↗️ Karel",
            "repo_url": "https://gitlab.com/categulario/karel-vue",
            "description": "Karel es una plataforma de aprendizaje de la programación. Este proyecto es una reestructura y rediseño del anterior en cuya elaboración también participé (aportando la implementación original del mundo en canvas).",
            "tags": ["vuejs", "javascript"]
        },

        {
            "title": "🗺️ Mapas-py",
            "link": "https://gitlab.com/categulario/mapas-py",
            "description": "Una pequeña biblioteca para crear mapas estáticos en python. Piénsalo como un openlayers o leaflet que genera imágenes PNG con tus mapas",
            "tags": ["biblioteca", "python"]
        }
    ]
}
